<svg xmlns="http://www.w3.org/2000/svg" xmlns:xlink="http://www.w3.org/1999/xlink" width="8" height="28" viewBox="0 0 8 16">
    <defs>
        <path id="a" d="M6.855 17.336l-4.722 4.525a.508.508 0 0 1-.697 0l-.291-.28a.46.46 0 0 1 0-.668l4.085-3.911-4.081-3.915a.46.46 0 0 1 0-.669l.291-.28a.508.508 0 0 1 .697 0l4.722 4.526a.467.467 0 0 1-.004.672z"/>
    </defs>
    <g fill="none" fill-rule="evenodd">
        <path d="M0 0h8v34H0z"/>
        <mask id="b" fill="#fff">
            <use xlink:href="#a"/>
        </mask>
        <g fill="#FFF" mask="url(#b)">
            <path d="M0 0h8v34H0z"/>
        </g>
    </g>
</svg>